<?xml version="1.0" encoding="utf-8"?>
<!-- Generator: Adobe Illustrator 16.0.0, SVG Export Plug-In . SVG Version: 6.00 Build 0)  -->
<!DOCTYPE svg PUBLIC "-//W3C//DTD SVG 1.1//EN" "http://www.w3.org/Graphics/SVG/1.1/DTD/svg11.dtd">
<svg version="1.1" id="Layer_1" xmlns="http://www.w3.org/2000/svg" xmlns:xlink="http://www.w3.org/1999/xlink" x="0px" y="0px"
	 width="54.993px" height="54.993px" viewBox="0 0 54.993 54.993" enable-background="new 0 0 54.993 54.993" xml:space="preserve">
<image overflow="visible" width="55" height="55" xlink:href="data:image/jpeg;base64,/9j/4AAQSkZJRgABAgEASABIAAD/7AARRHVja3kAAQAEAAAAHgAA/+4AIUFkb2JlAGTAAAAAAQMA
EAMCAwYAAAF0AAABfwAAAaD/2wCEABALCwsMCxAMDBAXDw0PFxsUEBAUGx8XFxcXFx8eFxoaGhoX
Hh4jJSclIx4vLzMzLy9AQEBAQEBAQEBAQEBAQEABEQ8PERMRFRISFRQRFBEUGhQWFhQaJhoaHBoa
JjAjHh4eHiMwKy4nJycuKzU1MDA1NUBAP0BAQEBAQEBAQEBAQP/CABEIADgAOAMBIgACEQEDEQH/
xABeAAEBAAAAAAAAAAAAAAAAAAAABwEBAAAAAAAAAAAAAAAAAAAAABABAQAAAAAAAAAAAAAAAAAA
QFARAQAAAAAAAAAAAAAAAAAAAFASAQAAAAAAAAAAAAAAAAAAAED/2gAMAwEAAhEDEQAAAKAAAAAA
AAAAAAAAAAD/2gAIAQIAAQUAB//aAAgBAwABBQAH/9oACAEBAAEFAKP/2gAIAQICBj8AB//aAAgB
AwIGPwAH/9oACAEBAQY/AEf/2Q==" transform="matrix(0.9999 0 0 0.9999 0 0)">
</image>
</svg>
